<svg xmlns="http://www.w3.org/2000/svg" xmlns:xlink="http://www.w3.org/1999/xlink" version="1.1" id="Layer_1" x="0px" y="0px" viewBox="0 0 100 100" enable-background="new 0 0 100 100" xml:space="preserve" height="100px" width="100px">
<g>
	<path fill="#888888" d="M32.4,50.6L10,27.4C5,22.4,5,15,10,10s12.4-5,17.4,0l22.4,22.4L72.2,10c5-5,13.3-5,18.2,0   c5,5,5,13.3,0,18.2L68,50.6L90.4,73c5,5,5,12.4,0,17.4s-12.4,5-17.4,0L50.6,68L28.2,90.4c-5,5-13.3,5-18.2,0c-5-5-5-13.3,0-18.2   L32.4,50.6z"/>
</g>
</svg>